Tutorial: Fitting the Marginalized Two-part Gamma Model Using brms
…
This document shows how to use R and brms to fit the marginalized two-part gamma model used in the article, and it also presents an example of how to visualize and summarize the results.

library(brms)
library(tidyverse)
theme_set(theme_minimal())
source("code/custom_brms.R")

The Data

This tutorial will use simulated data in order to allow sharing of the data set, and allow reproducing the results using other software. The data can be found in tutorial/tutorial.csv. In the file we have 150 participants allocated either to a control or a treatment condition, each participant have 11 weekly measures. The measures represent the average daily gambling losses (in euros) during each week.

d <- read_csv("tutorial/tutorial.csv")
d

## # A tibble: 1,650 x 4
##    subject treatment  time     y
##      <dbl>     <dbl> <dbl> <dbl>
##  1       1         1     0   0  
##  2       1         1     1  99.8
##  3       1         1     2   0  
##  4       1         1     3  32.5
##  5       1         1     4  17.6
##  6       1         1     5  13.6
##  7       1         1     6   0  
##  8       1         1     7   0  
##  9       1         1     8  63.5
## 10       1         1     9  38.1
## #  with 1,640 more rows
…
